<?xml version="1.0" encoding="UTF-8" standalone="no"?>
<svg
   xmlns:dc="http://purl.org/dc/elements/1.1/"
   xmlns:cc="http://creativecommons.org/ns#"
   xmlns:rdf="http://www.w3.org/1999/02/22-rdf-syntax-ns#"
   xmlns:svg="http://www.w3.org/2000/svg"
   xmlns="http://www.w3.org/2000/svg"
   xmlns:sodipodi="http://sodipodi.sourceforge.net/DTD/sodipodi-0.dtd"
   xmlns:inkscape="http://www.inkscape.org/namespaces/inkscape"
   viewBox="0 0 512 512"
   version="1.1"
   id="svg4"
   sodipodi:docname="cloud-showers-heavy-solid.svg"
   inkscape:version="0.92.5 (2060ec1f9f, 2020-04-08)">
  <metadata
     id="metadata10">
    <rdf:RDF>
      <cc:Work
         rdf:about="">
        <dc:format>image/svg+xml</dc:format>
        <dc:type
           rdf:resource="http://purl.org/dc/dcmitype/StillImage" />
      </cc:Work>
    </rdf:RDF>
  </metadata>
  <defs
     id="defs8" />
  <sodipodi:namedview
     pagecolor="#ffffff"
     bordercolor="#666666"
     borderopacity="1"
     objecttolerance="10"
     gridtolerance="10"
     guidetolerance="10"
     inkscape:pageopacity="0"
     inkscape:pageshadow="2"
     inkscape:window-width="1920"
     inkscape:window-height="975"
     id="namedview6"
     showgrid="false"
     inkscape:zoom="0.73551941"
     inkscape:cx="191.43872"
     inkscape:cy="159.18349"
     inkscape:window-x="1920"
     inkscape:window-y="0"
     inkscape:window-maximized="1"
     inkscape:current-layer="svg4" />
  <!--! Font Awesome Pro 6.3.0 by @fontawesome - https://fontawesome.com License - https://fontawesome.com/license (Commercial License) Copyright 2023 Fonticons, Inc. -->
  <path
     d="m 93.280834,317.28083 c -53,0 -96.0000008,-43 -96.0000008,-96 0,-42.5 27.6000008,-78.6 65.9000008,-91.2 -1.2,-6.7 -1.9,-13.7 -1.9,-20.8 0,-61.899997 50.100006,-111.9999969 112.000006,-111.9999969 43.1,0 80.5,24.2999999 99.2,59.9999999 14.7,-17.1 36.5,-28 60.8,-28 44.2,0 80,35.8 80,79.999997 0,5.5 -0.6,10.8 -1.6,16 0.5,0 1.1,0 1.6,0 53,0 96,43 96,96 0,53 -43,96 -96,96 z"
     id="path4528"
     style="fill:#999999" />
  <path
     d="m 78.780834,351.18083 c 12.2,5.2 17.8,19.3 12.6,31.5 l -48,112 c -5.2,12.2 -19.3,17.8 -31.5,12.6 -12.20000083,-5.2 -17.9000008,-19.3 -12.70000086,-31.5 l 48.00000086,-112 c 5.2,-12.2 19.3,-17.8 31.5,-12.6 z"
     id="path4526"
     style="fill:#0088aa" />
  <path
     d="m 198.78084,351.18083 c 12.2,5.2 17.8,19.3 12.6,31.5 l -48,112 c -5.2,12.2 -19.3,17.8 -31.5,12.6 -12.2,-5.2 -17.8,-19.3 -12.6,-31.5 l 48,-112 c 5.2,-12.2 19.3,-17.8 31.5,-12.6 z"
     id="path4524"
     style="fill:#0088aa" />
  <path
     d="m 443.38084,382.68083 -48,112 c -5.2,12.2 -19.3,17.8 -31.5,12.6 -12.2,-5.2 -17.8,-19.3 -12.6,-31.5 l 48,-112 c 5.2,-12.2 19.3,-17.8 31.5,-12.6 12.2,5.2 17.8,19.3 12.6,31.5 z"
     id="path4522"
     style="fill:#0088aa" />
  <path
     d="m 310.78084,351.18083 c 12.2,5.2 17.8,19.3 12.6,31.5 l -48,112 c -5.2,12.2 -19.3,17.8 -31.5,12.6 -12.2,-5.2 -17.8,-19.3 -12.6,-31.5 l 48,-112 c 5.2,-12.2 19.3,-17.8 31.5,-12.6 z"
     id="path2"
     style="fill:#0088aa" />
</svg>
